Month,Week,Package Name,5,4,3,2,1,Grand Total,Avg Rating,Store Rating,Month.1,Week.1,Package Name.1,5.1,4.1,3.1,2.1,1.1,Grand Total.1,Avg Rating.1,Store Rating.1,Month.2,Week.2,Package Name.2,5.2,4.2,3.2,2.2,1.2,Grand Total.2,Avg Rating.2,Store Rating.2
0,0,com.circles.selfcare,0,0,0,0,0,0,0.0,0.0,0,0,com.circles.selfcare.tw,0,0,0,0,0,0,0,0.0,0,0,com.circles.selfcare.au,0,0,0,0,0,0,0.0,0.0
4,17,com.circles.selfcare,0,1,0,0,1,2,2.5,4.8,4,17,com.circles.selfcare.tw,0,0,0,0,0,0,0,4.8,4,17,com.circles.selfcare.au,0,0,0,0,0,0,0.0,4.5
4,17,com.circles.selfcare,0,1,0,0,1,2,2.5,4.8,4,17,com.circles.selfcare.tw,0,0,0,0,0,0,0,4.8,4,17,com.circles.selfcare.au,0,0,0,0,0,0,0.0,4.5
4,17,com.circles.selfcare,0,1,0,0,1,2,2.5,4.8,4,17,com.circles.selfcare.tw,0,0,0,0,0,0,0,4.8,4,17,com.circles.selfcare.au,0,0,0,0,0,0,0.0,4.5
4,17,com.circles.selfcare,0,1,0,0,1,2,2.5,4.8,4,17,com.circles.selfcare.tw,0,0,0,0,0,0,0,4.8,4,17,com.circles.selfcare.au,0,0,0,0,0,0,0.0,4.5
4,17,com.circles.selfcare,0,1,0,0,1,2,2.5,4.8,4,17,com.circles.selfcare.tw,0,0,0,0,0,0,0,4.8,4,17,com.circles.selfcare.au,0,0,0,0,0,0,0.0,4.5
4,17,com.circles.selfcare,0,1,0,0,1,2,2.5,4.8,4,17,com.circles.selfcare.tw,0,0,0,0,0,0,0,4.8,4,17,com.circles.selfcare.au,0,0,0,0,0,0,0.0,4.5
4,18,com.circles.selfcare,0,0,0,0,0,0,0.0,4.8,4,18,com.circles.selfcare.tw,0,0,0,0,0,0,0,4.8,4,18,com.circles.selfcare.au,3,0,0,0,0,3,5.0,4.6
4,18,com.circles.selfcare,0,0,0,0,0,0,0.0,4.8,4,18,com.circles.selfcare.tw,0,0,0,0,0,0,0,4.8,4,18,com.circles.selfcare.au,3,0,0,0,0,3,5.0,4.6
4,17,com.circles.selfcare,5,1,0,0,1,7,4.286,4.8,4,17,com.circles.selfcare.tw,0,0,0,0,0,0,0,4.8,4,17,com.circles.selfcare.au,0,0,0,0,0,0,0.0,4.6
5,18,com.circles.selfcare,11,0,0,0,0,11,5.0,"['4.8', 0, 0, 0, 0, 0, '4.8']",5,18,com.circles.selfcare.tw,0,0,0,0,0,0,0,"['4.8', 0, 0, 0, 0, 0, '4.8']",5,18,com.circles.selfcare.au,3,0,0,0,0,3,5.0,"['4.6', 0, 0, 0, 0, 0, '4.6']"
