Date,Id,Rating,Version,Review title,Review
2020-10-18T21:52:47-07:00,6550341491,5,6.2.1,Definitely Recommend! Best Provider!,"Absolutely love this provider and the plan!

It is definitely the best plan out there, and for a ridiculously low price – making it the best value by far!

Highly recommended, anyone would be foolish not to at least give circle a try. 

The 100 GB plan for $28 is more than enough, but if you need more it’s as simple as one button press to add more data through the app – at a great price I may add!"
2020-10-13T03:35:20-07:00,6530316840,1,6.2.1,Forced updates,"Forcing updates which take 100mb of data just to use the app is an insane idea! So if I run out of data and need to use the app, I must then go -100mb into debt to top up?"
2020-10-11T18:45:23-07:00,6525857273,5,6.2.1,Review,I was with another provider before I looked up these guys and I was always running out of data and the cost each month was almos double what these guys charge now that I’m with Circles.Life I never run out of data and the cost each moth is basic nothing loving this provider I wish I had known about them earlier there the best
2020-08-30T17:50:56-07:00,6378981023,5,1.38.0,Seems like a winner,"For the amount of GB you get, Circles is by far the best value mobile provider that I’ve been with. I needed the extra big data allocation due to not having internet available so this really fits the bill when using my phone as a hotspot. So far so good 👍🏻😊"
2020-08-30T07:07:56-07:00,6377444410,5,1.38.0,Switch now,Unreal deals
2020-08-20T23:05:43-07:00,6343821240,1,1.37.0,Network Error majority of time,"Using iphone x max, having lots of problem with internet connection.
It happens from last 2 months.

Switching to other service provider.
Its also pain to move away from these guys as they are using account number with characters. So you cannot port directly to other service provider."
2020-08-07T18:48:38-07:00,6292994455,5,1.35.0,Amazing app,"I never write a review 
But this app is really good, it’s very easy to use and the internet is good too especially for that amount of price, I mean $28 for 100GB a month is steal."
2020-07-31T17:21:21-07:00,6265150477,5,1.34.0,Love it,It’s so cheap.....and works as well as well as Optus 😌
2020-07-31T03:48:17-07:00,6262859619,1,1.33.0,The app is broken and I got mislead,"I was promised a $28 a month plan but I have to pay $30+ month without addons or overusing data, plus I was told that I used 50% of my data which is 100gb at 10gb"
2020-07-28T17:44:49-07:00,6253436615,1,1.33.0,Cheap but no support,"App downloaded then told not authorised to use despite having mobile service with Circles. Like all telcos impossible to contact for any support. Tried the live chat, zero response. The  telco that provides good customer  support will be the first , but it definitely isn’t Circles."
2020-07-25T04:17:50-07:00,6239855061,4,1.33.0,Generally good app but a bit lacking,Very basic app for tracking account but lacking security features such as Face ID/Touch ID or PIN and unable to stay logged in on multiple devices.
2020-07-22T18:08:01-07:00,6230183471,1,1.33.0,Very bad,It used all my internet even though I did not use any and it requests payment even though I did not get any internet
2020-07-09T01:32:34-07:00,6175731463,5,1.31.0,Happy customer,I’m very glad I changed my plan and started being with circles.life because not only do I get 100GB a month but I was paying the same amount from the previous plan I was with for the use of only 15GB.
2020-06-15T20:39:06-07:00,6081274239,4,1.26.0,Better than others,"I have been using so many different providers (up to 4) and Circles.Life gaves me such a nice deal!

Fast sim delivery, network coverage is ok but if you are in rural, I’m not too sure about this.

The app is so easy and simple!
What’s else do you need!!!"
2020-06-14T17:23:16-07:00,6076713974,3,1.26.0,Mohammadosman,Why not working the circles life
2020-06-11T17:26:56-07:00,6064912191,5,1.26.0,Legendary,Keeps me on top of my data plan and bills and easy to use. Really stoked I changed to Circles. Awesome Telco.
2020-06-03T00:38:20-07:00,6028913216,5,1.24.0,Best provider,Best service provider ever
2020-05-28T18:45:53-07:00,6007250406,5,1.24.0,Best App For Best Telcom,Love Circles and their app is by far the best out of any of the internet providers!
2020-05-27T22:34:35-07:00,6003425262,5,1.23.0,The best,The best
2020-05-26T21:54:31-07:00,5998995089,5,1.23.0,Thanks,"Just one word : SUPERB!!!!!!!
Thanks"
2020-05-26T17:26:55-07:00,5998239554,5,1.23.0,Love the app,Easy to use and see just how much data I’ve used. Just so good
2020-05-20T23:28:15-07:00,5973401212,5,1.23.0,Great value,"Overall really good,"
2020-05-11T19:36:01-07:00,5934003106,5,1.21.1,Good,App is good and easy to use
2020-05-10T15:07:39-07:00,5929171634,5,1.21.1,Great app.,Easy to use. Pleasant branding and interface. Love the live data usage meter. And easy access to bills. Quick reference to remaining credit left. Can switch plans easily and turn add-ons on or off. No glitches. Clever. Easy. Sleek. Clean. Highly recommended. Thanks Circles!
2020-05-08T01:55:45-07:00,5918378739,1,1.21.0,Don’t get Circle,"I got a postpaid sim from Circle, at the of month they charged me a lot of more than cost of plane that I got. They are not Reliable"
2020-05-05T18:31:09-07:00,5908202427,5,1.20.0,Great service and discounts,Circles offers a great service for the price you pay. And they keep offering discounts as well. Their app works great and is quite user friendly. The FAQs covered everything. Keep up the good work!
2020-05-04T19:56:13-07:00,5904220968,5,1.20.0,Fantastic value,"I’m a student so I get an extra $10 off. (Contact them for the code)

Adding on the extra data is confusing at first, but that’s because I was expecting to get ripped off. It’s actually an amazing deal and I couldn’t believe it at first. You simply wait until your data is running low then slide the data add on button to on. Then you get the full amount of extra data.....BUT they only charge you the pro rata amount for the number of days left. 

So the deal is $10 for 20Gb. But if I activate it on the 15th I get 20gb for $5. It’s amazing. 
Just remember to turn off the button the next day so it doesn’t automatically roll over on the 1st off the month."
2020-04-28T07:08:17-07:00,5875371579,5,1.19.1,Awesome,"Awesome provider, best deals around."
2020-04-24T16:49:18-07:00,5859507125,5,1.19.1,Great plan,I am as on the same plan for many years. I changed jobs and was using more data due to my commute and was being charged for extra data. I am saving a lot with my Circle plan. The only downside is the number of messages from Circle trying to get more customers!
2020-04-23T08:21:42-07:00,5853221355,5,1.19.0,Customer service king,Truely a telco that cares about its customers genuinely. All chats have been quite pleasant so far ! Keep up the great work!
2020-04-22T04:42:26-07:00,5847815915,5,1.19.0,Great Value,"Using the 100gb offer for $28 for 12 months and it’s so fast on the Optus 4G network. I get up to 100mbps speed download, NBN has not a chance! A+++ Highly recommended"
2020-04-07T23:40:36-07:00,5779488135,5,1.16.0,Great value,I’d been in the same plan with another provider for 10 years.  It wasn’t till they started slugging me for excess data that I had the impetus to move. Saw an ad for these guys and didn’t look back. If I needed mote data I can just purchase a plug in at reasonable prices through the app (so far I have more than enough). With the other provider it was more complicated. Very happy.
2020-03-31T23:13:50-07:00,5744419766,5,1.15.0,Love Circles.Life,So glad this provider App is so simple to use 👌😍
2020-03-30T04:50:36-07:00,5735368363,1,1.14.0,Scam don’t use this service,Was unable to cancel the service lack of customer support never ring you back customer hotline only can leave a voicemail. Stay away from this company
2020-03-24T20:26:45-07:00,5709149701,5,1.13.1,THE BEST TELCO AND APP GOING AROUND,"Apart from great value for money, coverage and user experience is top notch. The app works smoothly and is incredibly simple.

Couldn’t recommend enough! Happy customer."
2020-03-22T15:57:34-07:00,5698585109,5,1.13.0,Good and easy to use,This app is very convenient I have no issues since i have downloaded it back in November 2019. Keep up th good work.
2020-03-03T18:54:38-07:00,5613110295,4,1.10.0,Circles is great and will continue to improve.,Their price is amazing and service is too. The app has room for extra features such as being able to manage multiple phone bills from one device (so I can manage my kids’ bills) but I’m sure that will come soon.
2020-02-27T20:22:34-07:00,5590247854,1,1.10.0,Worst ever,"Navigation on app is garbage.   Customer service is non existent.

Great way to drive away customers.   #slowclap"
2020-02-21T12:11:21-07:00,5562261541,5,1.9.0,Love circle so far,It’s been approx 3 weeks now and very happy with service price and data and deals and bonus’s
2020-02-03T18:22:49-07:00,5485031321,1,1.6.0,The app keeps crashing,"Trust me Worst customer service and mobile app ever, apps keeps crashing , they say its my phone, lol i do have a latest iphone🤦‍♂️"
2020-02-03T02:55:03-07:00,5482442486,2,1.6.0,Cant change country code,I’m a new user and I can’t change the country code in the app upon registration. I can’t change my appstore location because I have a lot of subscriptions. Please allow to change the country code. It’s stuck at +61. I need it to be +65
2020-01-15T08:11:50-07:00,5407243801,5,1.3.0,"Glad I switched, app is a big reason why",I have been using this app for about 3 months and love the ambition behind it. The background work is paying off and there’s a lot of cool features certain telco apps don’t support. I love how simple and easy it is to manage billing and payment on the app
2020-01-11T22:38:34-07:00,5392965649,5,1.3.0,Good,Easy
2019-12-30T19:28:14-07:00,5341110193,1,1.1.1,Rip off experts that go round and round in circles,"“4monthsoff” promo never applied to my account and customer service wait period is in excess of an hour, not helpful, ported out after a long struggle"
2019-12-30T13:54:07-07:00,5340196377,5,1.1.1,Mr,"Could you please add a multi accounts function, thank you."
2019-12-22T04:30:17-07:00,5304311557,1,1.1.1,Connection error,"Since moving to an iPhone 11 Pro Max I get a ‘Connection Error’ on opening the app. Not able to use it at all. Rebooting, reinstalling does not work. I can sign in with the SMS code, then nothing."
2019-12-18T13:27:33-07:00,5288630653,4,1.0.7,Decent app,"Hot super functional, but definitely a great improvement compared to what TPG offers"
2019-12-09T08:26:37-07:00,5252771094,1,1.0.6,APPALLING,"App is atrocious, network cover is abysmal whilst app feels like an 8yr old designed it and additionally very bugy.

Calling Customer Service staff 'Happiness Experts' is laughable -- unless their ""happiness"" is derived at the expense and misery of its customers.

Every single step from sign up with Circles.Life has been an exercise in abject misery and constant problems which continue to this day."
2019-12-02T16:47:52-07:00,5226636117,5,1.0.6,Help pls,"Hello can someone pls help me I wrote an email for answers n I never got an email back 
It has taken 4 days to transfer my number I just got confirmation in an email so I download app n put my number in n it said it send a code it hasn’t 
I been trying all day 
How do I get the four number code to punch in to start ?
My number +61414769908
Pls help the chat doesn’t
Work 
Thank you"
2019-11-25T18:07:03-07:00,5197625259,2,1.0.6,"Good deal, slow speeds","Got a decent amount of data on $28 a month plan and the transfer and delivery of the sim were fast, however 4g speeds seem like they are half as fast as major carriers and 4g coverage is not as broad. Not entirely worth it in my opinion."
